{
	"api": {
		"ezkost": {
			"service": "AppSync",
			"providerPlugin": "awscloudformation",
			"output": {
				"authConfig": {
					"additionalAuthenticationProviders": [],
					"defaultAuthentication": {
						"authenticationType": "API_KEY",
						"apiKeyConfig": {
							"description": "administrator",
							"apiKeyExpirationDays": "15"
						}
					}
				}
			}
		}
	}
}