{
    "testing": {
        "awscloudformation": {
            "AuthRoleName": "amplify-ezkost-testing-191258-authRole",
            "UnauthRoleArn": "arn:aws:iam::534835373836:role/amplify-ezkost-testing-191258-unauthRole",
            "AuthRoleArn": "arn:aws:iam::534835373836:role/amplify-ezkost-testing-191258-authRole",
            "Region": "ap-southeast-1",
            "DeploymentBucketName": "amplify-ezkost-testing-191258-deployment",
            "UnauthRoleName": "amplify-ezkost-testing-191258-unauthRole",
            "StackName": "amplify-ezkost-testing-191258",
            "StackId": "arn:aws:cloudformation:ap-southeast-1:534835373836:stack/amplify-ezkost-testing-191258/0c5afcb0-3147-11ea-9d4f-066c5dc7e038",
            "AmplifyAppId": "d21bkxisspfxmg"
        }
    }
}